{
    "name": "PlayerControlMapping",
    "maps": [
        {
            "name": "Gameplay",
            "id": "214d718a-23d8-422d-a066-614bc0ba9471",
            "actions": [
                {
                    "name": "Horizontal",
                    "type": "Button",
                    "id": "5462a5ce-1a9f-4103-ac49-2b2ee7c26c20",
                    "expectedControlType": "Button",
                    "processors": "",
                    "interactions": "",
                    "initialStateCheck": false
                },
                {
                    "name": "Vertical",
                    "type": "Button",
                    "id": "0953464e-c3d9-4766-b759-c6b66a2b30f4",
                    "expectedControlType": "Button",
                    "processors": "",
                    "interactions": "",
                    "initialStateCheck": false
                },
                {
                    "name": "Fire1",
                    "type": "Button",
                    "id": "24176b2d-f557-4963-b295-696bb9fd854f",
                    "expectedControlType": "Button",
                    "processors": "",
                    "interactions": "Press(behavior=2),Hold",
                    "initialStateCheck": false
                },
                {
                    "name": "Fire2",
                    "type": "Button",
                    "id": "d5fd1f81-2026-4821-bd0e-6dd5c30d100c",
                    "expectedControlType": "Button",
                    "processors": "",
                    "interactions": "Press(behavior=2),Hold",
                    "initialStateCheck": false
                }
            ],
            "bindings": [
                {
                    "name": "1D Axis",
                    "id": "d6bd5b79-02c2-4f4e-9f01-09b950f7bada",
                    "path": "1DAxis",
                    "interactions": "",
                    "processors": "",
                    "groups": "",
                    "action": "Horizontal",
                    "isComposite": true,
                    "isPartOfComposite": false
                },
                {
                    "name": "negative",
                    "id": "8c351044-42e4-4278-9988-bab9e3f0ea67",
                    "path": "<Keyboard>/a",
                    "interactions": "",
                    "processors": "",
                    "groups": "",
                    "action": "Horizontal",
                    "isComposite": false,
                    "isPartOfComposite": true
                },
                {
                    "name": "positive",
                    "id": "bf3b00a9-7fc9-4b1b-a3f0-c2fa58d176b5",
                    "path": "<Keyboard>/d",
                    "interactions": "",
                    "processors": "",
                    "groups": "",
                    "action": "Horizontal",
                    "isComposite": false,
                    "isPartOfComposite": true
                },
                {
                    "name": "1D Axis",
                    "id": "dc9466de-36b1-4371-ab22-2fc0256d0b03",
                    "path": "1DAxis",
                    "interactions": "",
                    "processors": "",
                    "groups": "",
                    "action": "Vertical",
                    "isComposite": true,
                    "isPartOfComposite": false
                },
                {
                    "name": "negative",
                    "id": "8343885d-18c2-4254-8e12-f83dbe4fdefb",
                    "path": "<Keyboard>/s",
                    "interactions": "",
                    "processors": "",
                    "groups": "",
                    "action": "Vertical",
                    "isComposite": false,
                    "isPartOfComposite": true
                },
                {
                    "name": "positive",
                    "id": "75fb0c72-f0de-46d6-8467-00c14f47ac9b",
                    "path": "<Keyboard>/w",
                    "interactions": "",
                    "processors": "",
                    "groups": "",
                    "action": "Vertical",
                    "isComposite": false,
                    "isPartOfComposite": true
                },
                {
                    "name": "",
                    "id": "1a139bda-38d1-471c-9a47-46e094ae232b",
                    "path": "<Keyboard>/leftCtrl",
                    "interactions": "",
                    "processors": "",
                    "groups": "",
                    "action": "Fire1",
                    "isComposite": false,
                    "isPartOfComposite": false
                },
                {
                    "name": "",
                    "id": "686b33bb-149b-46bd-8dd3-499dd80b9e60",
                    "path": "<Mouse>/leftButton",
                    "interactions": "",
                    "processors": "",
                    "groups": "",
                    "action": "Fire1",
                    "isComposite": false,
                    "isPartOfComposite": false
                },
                {
                    "name": "",
                    "id": "56175a5a-e85d-40ac-95ef-fb99fced5279",
                    "path": "<Keyboard>/leftAlt",
                    "interactions": "",
                    "processors": "",
                    "groups": "",
                    "action": "Fire2",
                    "isComposite": false,
                    "isPartOfComposite": false
                },
                {
                    "name": "",
                    "id": "56c85a89-da88-46dd-bd9c-40aee149b365",
                    "path": "<Mouse>/rightButton",
                    "interactions": "",
                    "processors": "",
                    "groups": "",
                    "action": "Fire2",
                    "isComposite": false,
                    "isPartOfComposite": false
                }
            ]
        }
    ],
    "controlSchemes": []
}