%YAML 1.1
%TAG !u! tag:unity3d.com,2011:
--- !u!114 &11400000
MonoBehaviour:
  m_ObjectHideFlags: 0
  m_CorrespondingSourceObject: {fileID: 0}
  m_PrefabInstance: {fileID: 0}
  m_PrefabAsset: {fileID: 0}
  m_GameObject: {fileID: 0}
  m_Enabled: 1
  m_EditorHideFlags: 0
  m_Script: {fileID: 11500000, guid: 9f974e1f85cbc874f97630e7b8ca65df, type: 3}
  m_Name: CapsulePlayerControllerSettingsPreset-Preset3
  m_EditorClassIdentifier: 
  RotationSpeed: 270
  DirectionalSpeed: 7
  DirectionalSprintSpeed: 12
  ForwardKey: 23
  BackwardKey: 25
  TurnLeftKey: 24
  TurnRightKey: 26
  SprintKey: 51
  InteractionKey: 29
