%YAML 1.1
%TAG !u! tag:unity3d.com,2011:
--- !u!114 &11400000
MonoBehaviour:
  m_ObjectHideFlags: 0
  m_CorrespondingSourceObject: {fileID: 0}
  m_PrefabInstance: {fileID: 0}
  m_PrefabAsset: {fileID: 0}
  m_GameObject: {fileID: 0}
  m_Enabled: 1
  m_EditorHideFlags: 0
  m_Script: {fileID: 11500000, guid: 930144133b7b461fa5001b90f44ce6ab, type: 3}
  m_Name: ItemSpawner
  m_EditorClassIdentifier: 
  m_prefab: {fileID: 1689151761052287092, guid: aa5f9b22bb201574e9bf47b54a48149f, type: 3}
