%YAML 1.1
%TAG !u! tag:unity3d.com,2011:
--- !u!162 &1
EditorUserSettings:
  m_ObjectHideFlags: 0
  serializedVersion: 4
  m_ConfigSettings:
    RecentlyUsedSceneGuid-0:
      value: 50005600060751090f580e7a47765b44454e407875717136292b1c6ab7b3603a
      flags: 0
    RecentlyUsedSceneGuid-1:
      value: 02550705030459595b57097a40730b4441164f7a287e7663282c4d36b2b26539
      flags: 0
    RecentlyUsedSceneGuid-2:
      value: 5306025f5101595d55575c751326074444164b7e7e7f7166797c1b67b6e13139
      flags: 0
    RecentlyUsedSceneGuid-3:
      value: 5201005e50560d5d0e575a704475094446164d7f787e72337c781962e4b9363d
      flags: 0
    RecentlyUsedSceneGuid-4:
      value: 0201000503030a5a5f5c0d7b45750744134e4a727f2924607e701b65bae3626e
      flags: 0
    RecentlyUsedSceneGuid-5:
      value: 52530c045505510b5959597a44710d4413164c7b7f2c2235292a4532b6b13660
      flags: 0
    RecentlyUsedSceneGuid-6:
      value: 5355505703020c085b5e5a2149250e444e154a78287024622b2f4f66e0b03069
      flags: 0
    RecentlyUsedSceneGuid-7:
      value: 0608045752515c5d54580e7b167306444e4e1a7e2e7b71357c2d4b36e0b9656c
      flags: 0
    RecentlyUsedSceneGuid-8:
      value: 00575654510d0b090c580a2616720c4413151b2c7c2b7363297a1c37b3b26560
      flags: 0
    RecentlyUsedSceneGuid-9:
      value: 52075003005108085e0b5b26147a5c44404f48797a7b70632e284560b7b3363a
      flags: 0
    vcSharedLogLevel:
      value: 0d5e400f0650
      flags: 0
  m_VCAutomaticAdd: 1
  m_VCDebugCom: 0
  m_VCDebugCmd: 0
  m_VCDebugOut: 0
  m_SemanticMergeMode: 2
  m_DesiredImportWorkerCount: 2
  m_StandbyImportWorkerCount: 2
  m_IdleImportWorkerShutdownDelay: 60000
  m_VCShowFailedCheckout: 1
  m_VCOverwriteFailedCheckoutAssets: 1
  m_VCProjectOverlayIcons: 1
  m_VCHierarchyOverlayIcons: 1
  m_VCOtherOverlayIcons: 1
  m_VCAllowAsyncUpdate: 1
  m_ArtifactGarbageCollection: 1
